Turnout Outliers • plausi
…
anomalous_topics <- diff2 |> 
  separate(combination, into = c("vorlage1", "vorlage2"), sep = "_") |> 
  filter(outlier == TRUE) |> 
  pivot_longer(
    cols = -c(canton_name, mun_name, mun_id, difference, outlier, median_difference), 
    names_to = "vorlage", 
    values_to = "vorlage_id"
  ) |> 
  group_by(mun_name, mun_id, vorlage_id) |> 
  summarize(n = n()) |> 
  arrange(desc(n))

anomalous_topics
#> # A tibble: 82 × 4
#> # Groups:   mun_name, mun_id [23]
#>    mun_name       mun_id vorlage_id     n
#>    <fct>          <fct>  <chr>      <int>
#>  1 Buch am Irchel 24     6320           4
#>  2 Hüttikon       87     6320           4
#>  3 Regensberg     95     6340           4
#>  4 Bachs          81     6330           3
#>  5 Bäretswil      111    6330           3
#>  6 Bülach         53     6350           3
#>  7 Dänikon        85     6310           3
#>  8 Dorf           26     6310           3
#>  9 Maschwanden    8      6330           3
#> 10 Maschwanden    8      6340           3
#> # ℹ 72 more rows
…
