Run predictions for multiple votes — predict_votes • plausi
…
...
Optional parameters that can be passed to the caret::train() function.

    Value

    A data.frame.

    Examples

# Set seed for reproducibility
set.seed(42)

predict_votes(c("Eidg1", "Kant1"), vote_data)
#> # A tibble: 342 × 5
#>    gemeinde           v_gemwkid  pred  real vorlage
#>    <chr>                  <dbl> <dbl> <dbl> <chr>  
#>  1 Adlikon                   21  23.4  21.5 Eidg1  
#>  2 Adliswil                 131  47.4  48.3 Eidg1  
#>  3 Aesch                    241  30.0  30.9 Eidg1  
#>  4 Aeugst am Albis            1  33.2  31.5 Eidg1  
#>  5 Affoltern am Albis         2  40.7  39.8 Eidg1  
#>  6 Altikon                  211  28.9  29.8 Eidg1  
#>  7 Andelfingen               30  33.0  32.1 Eidg1  
#>  8 Bachenbülach              51  38.3  39.9 Eidg1  
#>  9 Bachs                     81  31.4  30.5 Eidg1  
#> 10 Bäretswil                111  32.6  33.3 Eidg1  
#> # ℹ 332 more rows
…
